beacons,sent,lost,collided,no_processed,extracted,cant_reach_beacon,percentage_extracted,carpeta,archivo csv
10,3196,0,1084,4,1912,196,59.82,5CH_p3_1000_rndm_sf,RS_1_1000_16_p3.csv
10,3194,0,1058,0,1942,194,60.80,5CH_p3_1000_rndm_sf,RS_2_1000_16_p3.csv
10,3190,0,1065,0,1935,190,60.66,5CH_p3_1000_rndm_sf,RS_3_1000_16_p3.csv
10,3185,0,1055,0,1945,185,61.07,5CH_p3_1000_rndm_sf,RS_4_1000_16_p3.csv
10,3173,0,1093,1,1906,173,60.07,5CH_p3_1000_rndm_sf,RS_6_1000_16_p3.csv
10,3229,0,1059,0,1941,229,60.11,5CH_p3_1000_rndm_sf,RS_7_1000_16_p3.csv
10,3181,0,1073,1,1926,181,60.55,5CH_p3_1000_rndm_sf,RS_8_1000_16_p3.csv
10,3200,0,1028,0,1972,200,61.62,5CH_p3_1000_rndm_sf,RS_9_1000_16_p3.csv
10,3197,0,1073,0,1927,197,60.28,5CH_p3_1000_rndm_sf,RS_10_1000_16_p3.csv
